Name	Type	Data	Timestamp
(same as parent folder)	Mail Exchanger (MX)	[10]  mail.ciconline.org.	static
(same as parent folder)	Start of Authority (SOA)	[50], dc-ix.ncta.com., hostmaster.ncta.com.	static
mail	Host (A)	172.31.5.2	static
new	Host (A)	209.81.90.233	static
static	Host (A)	209.81.90.233	static
www	Host (A)	209.81.90.233	static
broadband	Host (A)	209.81.90.236	static
i	Host (A)	209.81.90.236	static
p	Host (A)	209.81.90.236	static
s	Host (A)	209.81.90.236	static
old	Host (A)	66.240.5.202	static
bbqa	Host (A)	66.240.5.203	static
sqa	Host (A)	66.240.5.203	static
ci	Host (A)	66.240.5.205	static
qa	Host (A)	66.240.5.206	static
staticqa	Host (A)	66.240.5.206	static
(same as parent folder)	Name Server (NS)	dc-ii.ncta.com.	static
(same as parent folder)	Name Server (NS)	dc-ix.ncta.com.	static
(same as parent folder)	Name Server (NS)	dc10.ncta.com.	?9/?10/?2009 23:00:00
(same as parent folder)	Name Server (NS)	dc11.ncta.com.	static
(same as parent folder)	Name Server (NS)	gypsy.ncta.com.	?9/?11/?2009 02:00:00
