Name	Type	Data	Timestamp
(same as parent folder)	Start of Authority (SOA)	[35], dc-ix.ncta.com., admin.ncta.com.	static
(same as parent folder)	Name Server (NS)	dc-ix.ncta.com.	static
(same as parent folder)	Name Server (NS)	dc10.ncta.com.	static
(same as parent folder)	Name Server (NS)	gypsy.ncta.com.	static
(same as parent folder)	Name Server (NS)	dc11.ncta.com.	static
(same as parent folder)	Name Server (NS)	dc-ii.ncta.com.	static
(same as parent folder)	Host (A)	206.252.155.68	static
2006	Host (A)	206.252.155.68	static
2007	Host (A)	206.252.155.68	static
dev	Host (A)	172.16.13.181	static
floorplan	Host (A)	66.155.125.218	static
i	Host (A)	206.252.155.68	static
store	Host (A)	206.252.155.68	static
test	Host (A)	66.240.5.114	static
testadmin	Host (A)	66.240.5.114	static
www	Host (A)	206.252.155.68	static
